acu_pos: 0.6105944113756614, acu_neg: 0.5319671773066169, acu:0.5524503575120606
acu_pos: 0.45873635912698413, acu_neg: 0.6866772483690587, acu:0.6272963688835286
acu_pos: 0.47163318452380953, acu_neg: 0.6787992194780987, acu:0.6248303971399035
acu_pos: 0.5495825066137566, acu_neg: 0.6126004776328052, acu:0.5961836664369401
acu_pos: 0.39479993386243384, acu_neg: 0.7515435694315005, acu:0.6586082873880083
acu_pos: 0.531187996031746, acu_neg: 0.6375415016309413, acu:0.6098353506202618
acu_pos: 0.6355510085978836, acu_neg: 0.5411885484622554, acu:0.5657709123018608
acu_pos: 0.5184048445767195, acu_neg: 0.6588129077353215, acu:0.6222352041695383
acu_pos: 0.4925698578042328, acu_neg: 0.6863641658900279, acu:0.6358788120261888
acu_pos: 0.44989045965608465, acu_neg: 0.7241233690587139, acu:0.652682955720193
acu_pos: 0.43717964616402116, acu_neg: 0.7362025279589934, acu:0.6583040790833907
acu_pos: 0.5793030753968254, acu_neg: 0.6109040074557316, acu:0.6026716488628532
acu_pos: 0.47936301256613756, acu_neg: 0.7059718662628145, acu:0.6469379953480359
acu_pos: 0.47837094907407407, acu_neg: 0.7053748252562908, acu:0.6462380470365265
acu_pos: 0.5089699074074074, acu_neg: 0.6780820421714818, acu:0.6340266411095796
